material "_1default"
{
	technique _1default_technique
	{
		pass _1default_standard
		{
			ambient 1 1 1 1
			diffuse 1 1 1 1
			specular 1 1 1 1 2.55
			emissive 0 0 0 1

			texture_unit _1default_Diffuse#0
			{
				texture _1cp2.jpg
				tex_coord_set 0
				colour_op modulate
			}
		}
	}
}
material "_1default_capsule2_open_2"
{
	technique _1default_capsule2_open_2_technique
	{
		pass _1default_capsule2_open_2_standard
		{
			ambient 1 1 1 1
			diffuse 1 1 1 1
			specular 1 1 1 1 2.55
			emissive 0 0 0 1

			texture_unit _1default_capsule2_open_2_Diffuse#0
			{
				texture _1ab1.jpg
				tex_coord_set 0
				colour_op modulate
			}
		}
	}
}
material "_1default_capsule2_windows"
{
	technique _1default_capsule2_windows_technique
	{
		pass _1default_capsule2_windows_standard
		{
			ambient 0 0 0 0.8
			diffuse 0 0 0 0.8
			specular 1 1 1 1 2.55
			emissive 0 0 0 0.8

			scene_blend alpha_blend
			depth_write off
		}
	}
}
