
material _missing_material_
{
    receive_shadows off
    technique
    {
        pass
        {
            ambient 0.1 0.1 0.1 1.0
            diffuse 0.8 0.0 0.0 1.0
            specular 0.5 0.5 0.5 1.0 12.5
            emissive 0.3 0.3 0.3 1.0
        }
    }
}

// 24 generated by blender2ogre 0.6.0

material 24 
{
    receive_shadows on 

    technique
    {
        pass 24
        {
            ambient 1.0 1.0 1.0 1.0
            diffuse 1.0 1.0 1.0 1.0
            specular 0.0 0.0 0.0 1.0 1.5
            emissive 0.0 0.0 0.0 1.0

            alpha_to_coverage off
            colour_write on
            cull_hardware clockwise
            depth_check on
            depth_func less_equal
            depth_write on
            illumination_stage 
            light_clip_planes off
            light_scissor off
            lighting on
            normalise_normals off
            polygon_mode solid
            scene_blend one zero
            scene_blend_op add
            shading gouraud
            transparent_sorting on

            texture_unit 
            {
                texture Object001_2015-08-31_23-23-31_complete.rpf_converted.jpg
                tex_address_mode wrap
                scale 1.0 1.0
                colour_op modulate
            }
        }
    }
}
// 25 generated by blender2ogre 0.6.0

material 25 
{
    receive_shadows on 

    technique
    {
        pass 25
        {
            ambient 1.0 1.0 1.0 1.0
            diffuse 1.0 1.0 1.0 1.0
            specular 0.0 0.0 0.0 1.0 1.5
            emissive 0.0 0.0 0.0 1.0

            alpha_to_coverage off
            colour_write on
            cull_hardware clockwise
            depth_check on
            depth_func less_equal
            depth_write on
            illumination_stage 
            light_clip_planes off
            light_scissor off
            lighting on
            normalise_normals off
            polygon_mode solid
            scene_blend one zero
            scene_blend_op add
            shading gouraud
            transparent_sorting on

            texture_unit 
            {
                texture Object002_2015-08-31_23-17-59_complete.rpf_converted.jpg
                tex_address_mode wrap
                scale 1.0 1.0
                colour_op modulate
            }
        }
    }
}
// 23 generated by blender2ogre 0.6.0

material 23 
{
    receive_shadows on 

    technique
    {
        pass 23
        {
            ambient 1.0 1.0 1.0 1.0
            diffuse 1.0 1.0 1.0 1.0
            specular 0.0 0.0 0.0 1.0 1.5
            emissive 0.0 0.0 0.0 1.0

            alpha_to_coverage off
            colour_write on
            cull_hardware clockwise
            depth_check on
            depth_func less_equal
            depth_write on
            illumination_stage 
            light_clip_planes off
            light_scissor off
            lighting on
            normalise_normals off
            polygon_mode solid
            scene_blend one zero
            scene_blend_op add
            shading gouraud
            transparent_sorting on

            texture_unit 
            {
                texture Object002_2015-08-31_23-09-43_complete.rpf_converted.jpg
                tex_address_mode wrap
                scale 1.0 1.0
                colour_op modulate
            }
        }
    }
}
// 22 generated by blender2ogre 0.6.0

material 22 
{
    receive_shadows on 

    technique
    {
        pass 22
        {
            ambient 1.0 1.0 1.0 1.0
            diffuse 1.0 1.0 1.0 1.0
            specular 0.0 0.0 0.0 1.0 1.5
            emissive 0.0 0.0 0.0 1.0

            alpha_to_coverage off
            colour_write on
            cull_hardware clockwise
            depth_check on
            depth_func less_equal
            depth_write on
            illumination_stage 
            light_clip_planes off
            light_scissor off
            lighting on
            normalise_normals off
            polygon_mode solid
            scene_blend one zero
            scene_blend_op add
            shading gouraud
            transparent_sorting on

            texture_unit 
            {
                texture Object001_2015-08-31_23-13-34_complete.rpf_converted.jpg
                tex_address_mode wrap
                scale 1.0 1.0
                colour_op modulate
            }
        }
    }
}
// 27 generated by blender2ogre 0.6.0

material 27 
{
    receive_shadows on 

    technique
    {
        pass 27
        {
            ambient 1.0 1.0 1.0 1.0
            diffuse 1.0 1.0 1.0 1.0
            specular 0.0 0.0 0.0 1.0 1.5
            emissive 0.0 0.0 0.0 1.0

            alpha_to_coverage off
            colour_write on
            cull_hardware clockwise
            depth_check on
            depth_func less_equal
            depth_write on
            illumination_stage 
            light_clip_planes off
            light_scissor off
            lighting on
            normalise_normals off
            polygon_mode solid
            scene_blend one zero
            scene_blend_op add
            shading gouraud
            transparent_sorting on

            texture_unit 
            {
                texture Object002_2015-09-01_01-17-39_complete.rpf_converted.jpg
                tex_address_mode wrap
                scale 1.0 1.0
                colour_op modulate
            }
        }
    }
}
// 26 generated by blender2ogre 0.6.0

material 26 
{
    receive_shadows on 

    technique
    {
        pass 26
        {
            ambient 1.0 1.0 1.0 1.0
            diffuse 1.0 1.0 1.0 1.0
            specular 0.0 0.0 0.0 1.0 1.5
            emissive 0.0 0.0 0.0 1.0

            alpha_to_coverage off
            colour_write on
            cull_hardware clockwise
            depth_check on
            depth_func less_equal
            depth_write on
            illumination_stage 
            light_clip_planes off
            light_scissor off
            lighting on
            normalise_normals off
            polygon_mode solid
            scene_blend one zero
            scene_blend_op add
            shading gouraud
            transparent_sorting on

            texture_unit 
            {
                texture Object001_2015-09-01_01-21-06_complete.rpf_converted.jpg
                tex_address_mode wrap
                scale 1.0 1.0
                colour_op modulate
            }
            texture_unit 
            {
                texture Object001_2015-09-01_01-21-06_complete.rpf_converted.jpg
                tex_address_mode wrap
                scale 1.0 1.0
                colour_op modulate
            }
        }
    }
}
// 13 generated by blender2ogre 0.6.0

material 13 
{
    receive_shadows on 

    technique
    {
        pass 13
        {
            ambient 1.0 1.0 1.0 1.0
            diffuse 1.0 1.0 1.0 1.0
            specular 0.0 0.0 0.0 1.0 1.5
            emissive 0.0 0.0 0.0 1.0

            alpha_to_coverage off
            colour_write on
            cull_hardware clockwise
            depth_check on
            depth_func less_equal
            depth_write on
            illumination_stage 
            light_clip_planes off
            light_scissor off
            lighting on
            normalise_normals off
            polygon_mode solid
            scene_blend one zero
            scene_blend_op add
            shading gouraud
            transparent_sorting on

            texture_unit 
            {
                texture Object008_2015-08-31_16-17-35_complete.rpf_converted.jpg
                tex_address_mode wrap
                scale 1.0 1.0
                colour_op modulate
            }
        }
    }
}
// 12 generated by blender2ogre 0.6.0

material 12 
{
    receive_shadows on 

    technique
    {
        pass 12
        {
            ambient 1.0 1.0 1.0 1.0
            diffuse 1.0 1.0 1.0 1.0
            specular 0.0 0.0 0.0 1.0 1.5
            emissive 0.0 0.0 0.0 1.0

            alpha_to_coverage off
            colour_write on
            cull_hardware clockwise
            depth_check on
            depth_func less_equal
            depth_write on
            illumination_stage 
            light_clip_planes off
            light_scissor off
            lighting on
            normalise_normals off
            polygon_mode solid
            scene_blend one zero
            scene_blend_op add
            shading gouraud
            transparent_sorting on

            texture_unit 
            {
                texture Object007_2015-08-31_16-20-40_complete.rpf_converted.jpg
                tex_address_mode wrap
                scale 1.0 1.0
                colour_op modulate
            }
        }
    }
}
// 31 generated by blender2ogre 0.6.0

material 31 
{
    receive_shadows on 

    technique
    {
        pass 31
        {
            ambient 1.0 1.0 1.0 1.0
            diffuse 1.0 1.0 1.0 1.0
            specular 0.0 0.0 0.0 1.0 1.5
            emissive 0.0 0.0 0.0 1.0

            alpha_to_coverage off
            colour_write on
            cull_hardware clockwise
            depth_check on
            depth_func less_equal
            depth_write on
            illumination_stage 
            light_clip_planes off
            light_scissor off
            lighting on
            normalise_normals off
            polygon_mode solid
            scene_blend one zero
            scene_blend_op add
            shading gouraud
            transparent_sorting on

            texture_unit 
            {
                texture Object002_2015-09-01_00-52-51_complete.rpf_converted.jpg
                tex_address_mode wrap
                scale 1.0 1.0
                colour_op modulate
            }
        }
    }
}
// 30 generated by blender2ogre 0.6.0

material 30 
{
    receive_shadows on 

    technique
    {
        pass 30
        {
            ambient 1.0 1.0 1.0 1.0
            diffuse 1.0 1.0 1.0 1.0
            specular 0.0 0.0 0.0 1.0 1.5
            emissive 0.0 0.0 0.0 1.0

            alpha_to_coverage off
            colour_write on
            cull_hardware clockwise
            depth_check on
            depth_func less_equal
            depth_write on
            illumination_stage 
            light_clip_planes off
            light_scissor off
            lighting on
            normalise_normals off
            polygon_mode solid
            scene_blend one zero
            scene_blend_op add
            shading gouraud
            transparent_sorting on

            texture_unit 
            {
                texture Object001_2015-09-01_01-05-32_complete.rpf_converted.jpg
                tex_address_mode wrap
                scale 1.0 1.0
                colour_op modulate
            }
        }
    }
}
// 16 generated by blender2ogre 0.6.0

material 16 
{
    receive_shadows on 

    technique
    {
        pass 16
        {
            ambient 1.0 1.0 1.0 1.0
            diffuse 1.0 1.0 1.0 1.0
            specular 0.0 0.0 0.0 1.0 1.5
            emissive 0.0 0.0 0.0 1.0

            alpha_to_coverage off
            colour_write on
            cull_hardware clockwise
            depth_check on
            depth_func less_equal
            depth_write on
            illumination_stage 
            light_clip_planes off
            light_scissor off
            lighting on
            normalise_normals off
            polygon_mode solid
            scene_blend one zero
            scene_blend_op add
            shading gouraud
            transparent_sorting on

            texture_unit 
            {
                texture Object001_2015-08-31_22-34-38_complete.rpf_converted.jpg
                tex_address_mode wrap
                scale 1.0 1.0
                colour_op modulate
            }
        }
    }
}
// 17 generated by blender2ogre 0.6.0

material 17 
{
    receive_shadows on 

    technique
    {
        pass 17
        {
            ambient 1.0 1.0 1.0 1.0
            diffuse 1.0 1.0 1.0 1.0
            specular 0.0 0.0 0.0 1.0 1.5
            emissive 0.0 0.0 0.0 1.0

            alpha_to_coverage off
            colour_write on
            cull_hardware clockwise
            depth_check on
            depth_func less_equal
            depth_write on
            illumination_stage 
            light_clip_planes off
            light_scissor off
            lighting on
            normalise_normals off
            polygon_mode solid
            scene_blend one zero
            scene_blend_op add
            shading gouraud
            transparent_sorting on

            texture_unit 
            {
                texture Object002_2015-08-31_22-30-38_complete.rpf_converted.jpg
                tex_address_mode wrap
                scale 1.0 1.0
                colour_op modulate
            }
        }
    }
}
// 14 generated by blender2ogre 0.6.0

material 14 
{
    receive_shadows on 

    technique
    {
        pass 14
        {
            ambient 1.0 1.0 1.0 1.0
            diffuse 1.0 1.0 1.0 1.0
            specular 0.0 0.0 0.0 1.0 1.5
            emissive 0.0 0.0 0.0 1.0

            alpha_to_coverage off
            colour_write on
            cull_hardware clockwise
            depth_check on
            depth_func less_equal
            depth_write on
            illumination_stage 
            light_clip_planes off
            light_scissor off
            lighting on
            normalise_normals off
            polygon_mode solid
            scene_blend one zero
            scene_blend_op add
            shading gouraud
            transparent_sorting on

            texture_unit 
            {
                texture Object008_2015-08-31_17-13-54_complete.rpf_converted.jpg
                tex_address_mode wrap
                scale 1.0 1.0
                colour_op modulate
            }
        }
    }
}
// 18 generated by blender2ogre 0.6.0

material 18 
{
    receive_shadows on 

    technique
    {
        pass 18
        {
            ambient 1.0 1.0 1.0 1.0
            diffuse 1.0 1.0 1.0 1.0
            specular 0.0 0.0 0.0 1.0 1.5
            emissive 0.0 0.0 0.0 1.0

            alpha_to_coverage off
            colour_write on
            cull_hardware clockwise
            depth_check on
            depth_func less_equal
            depth_write on
            illumination_stage 
            light_clip_planes off
            light_scissor off
            lighting on
            normalise_normals off
            polygon_mode solid
            scene_blend one zero
            scene_blend_op add
            shading gouraud
            transparent_sorting on

            texture_unit 
            {
                texture Object001_2015-08-31_22-57-14_complete.rpf_converted.jpg
                tex_address_mode wrap
                scale 1.0 1.0
                colour_op modulate
            }
        }
    }
}
// 19 generated by blender2ogre 0.6.0

material 19 
{
    receive_shadows on 

    technique
    {
        pass 19
        {
            ambient 1.0 1.0 1.0 1.0
            diffuse 1.0 1.0 1.0 1.0
            specular 0.0 0.0 0.0 1.0 1.5
            emissive 0.0 0.0 0.0 1.0

            alpha_to_coverage off
            colour_write on
            cull_hardware clockwise
            depth_check on
            depth_func less_equal
            depth_write on
            illumination_stage 
            light_clip_planes off
            light_scissor off
            lighting on
            normalise_normals off
            polygon_mode solid
            scene_blend one zero
            scene_blend_op add
            shading gouraud
            transparent_sorting on

            texture_unit 
            {
                texture Object002_2015-08-31_22-53-33_complete.rpf_converted.jpg
                tex_address_mode wrap
                scale 1.0 1.0
                colour_op modulate
            }
        }
    }
}
// 21 generated by blender2ogre 0.6.0

material 21 
{
    receive_shadows on 

    technique
    {
        pass 21
        {
            ambient 1.0 1.0 1.0 1.0
            diffuse 1.0 1.0 1.0 1.0
            specular 0.0 0.0 0.0 1.0 1.5
            emissive 0.0 0.0 0.0 1.0

            alpha_to_coverage off
            colour_write on
            cull_hardware clockwise
            depth_check on
            depth_func less_equal
            depth_write on
            illumination_stage 
            light_clip_planes off
            light_scissor off
            lighting on
            normalise_normals off
            polygon_mode solid
            scene_blend one zero
            scene_blend_op add
            shading gouraud
            transparent_sorting on

            texture_unit 
            {
                texture Object002_2015-08-31_23-01-14_complete.rpf_converted.jpg
                tex_address_mode wrap
                scale 1.0 1.0
                colour_op modulate
            }
        }
    }
}
// 20 generated by blender2ogre 0.6.0

material 20 
{
    receive_shadows on 

    technique
    {
        pass 20
        {
            ambient 1.0 1.0 1.0 1.0
            diffuse 1.0 1.0 1.0 1.0
            specular 0.0 0.0 0.0 1.0 1.5
            emissive 0.0 0.0 0.0 1.0

            alpha_to_coverage off
            colour_write on
            cull_hardware clockwise
            depth_check on
            depth_func less_equal
            depth_write on
            illumination_stage 
            light_clip_planes off
            light_scissor off
            lighting on
            normalise_normals off
            polygon_mode solid
            scene_blend one zero
            scene_blend_op add
            shading gouraud
            transparent_sorting on

            texture_unit 
            {
                texture Object001_2015-08-31_23-05-47_complete.rpf_converted.jpg
                tex_address_mode wrap
                scale 1.0 1.0
                colour_op modulate
            }
        }
    }
}
